{
    "jsonpaths": [
        "$.schema.vendor",
        "$.schema.name",
        "$.schema.format",
        "$.schema.version",
        "$.hierarchy.rootId",
        "$.hierarchy.rootTstamp",
        "$.hierarchy.refRoot",
        "$.hierarchy.refTree",
        "$.hierarchy.refParent",
        "$.data.links.self",
        "$.data.profile.attributes",
        "$.data.profile.createdAt",
        "$.data.profile.id",
        "$.data.profile.mergedProfiles",
        "$.data.profile.sessions",
        "$.data.profile.version"
    ]
}
